…
## Basic Usage

### Search for Occupations

Search for occupations by keyword:

```r
library(onet2r)

# Search for software-related occupations
results <- onet_search("software developer")
results
#> # A tibble: 20 × 2
#>    code       title                                 
#>    <chr>      <chr>                                 
#>  1 15-1252.00 Software Developers                   
#>  2 15-1251.00 Computer Programmers                  
#>  3 15-1256.00 Software Quality Assurance Analysts…  
#> # ℹ 17 more rows
…
# Get first 50 occupations
onet_occupations(start = 1, end = 50)
```

### Access Database Tables

Retrieve data from O\*NET database tables with automatic pagination:

```r
# List available tables
tables <- onet_tables()
tables
#> # A tibble: 84 × 2
#>    id                      title                                    
#>    <chr>                   <chr>                                    
#>  1 abilities               Abilities                                
#>  2 content_model_reference Content Model Reference                  
#>  3 education_training_exp… Education, Training, and Experience Cate…
#> # ℹ 81 more rows
…
