List All O*NET Occupations with Auto-Pagination — onet_occupations_all • onet2r
…
    Value

    A tibble with columns:
code
O*NET-SOC occupation code

title
Occupation title

    Examples

onet_occupations_all(show_progress = FALSE)
#> # A tibble: 1,016 × 2
#>    code       title                                                             
#>    <chr>      <chr>                                                             
#>  1 13-2011.00 Accountants and Auditors                                          
#>  2 27-2011.00 Actors                                                            
#>  3 15-2011.00 Actuaries                                                         
#>  4 29-1291.00 Acupuncturists                                                    
#>  5 29-1141.01 Acute Care Nurses                                                 
#>  6 25-2059.01 Adapted Physical Education Specialists                            
#>  7 51-9191.00 Adhesive Bonding Machine Operators and Tenders                    
#>  8 23-1021.00 Administrative Law Judges, Adjudicators, and Hearing Officers     
#>  9 11-3012.00 Administrative Services Managers                                  
#> 10 25-3011.00 Adult Basic Education, Adult Secondary Education, and English as …
#> # ℹ 1,006 more rows
…
