Longitudinal O*NET Archive Analysis • onet2r
…
panel |>
  arrange(onet_soc_code, element_id, release_version) |>
  select(
    release_version,
    onet_soc_code,
    element_name,
    data_value,
    source_date,
    domain_source
  ) |>
  head(10) |>
  print(width = Inf)
#> # A tibble: 10 × 6
#>   release_version onet_soc_code element_name        data_value source_date
#>   <chr>           <chr>         <chr>                    <dbl> <date>     
#> 1 30.2            11-1011.00    Oral Comprehension        4.38 2024-07-01 
#> 2 30.3            11-1011.00    Oral Comprehension        4.5  2025-07-01 
#> 3 30.2            11-1011.00    Problem Sensitivity       4.22 2024-07-01 
#> 4 30.3            11-1011.00    Problem Sensitivity       4.22 2024-07-01 
#>   domain_source
#>   <fct>        
#> 1 Analyst      
#> 2 Incumbent    
#> 3 Analyst      
#> 4 Analyst      
#> # ℹ 6 more rows
…
